<svg xmlns="http://www.w3.org/2000/svg" width="15" height="20" viewBox="0 0 15 20">
  <defs>
    <style>
      .cls-1 {
        fill: #a9a9a9;
        fill-rule: evenodd;
      }
    </style>
  </defs>
  <path class="cls-1" d="M244.5,21a7.5,7.5,0,0,0-7.5,7.5c0,5.5,7.5,12.5,7.5,12.5s7.5-7,7.5-12.5A7.5,7.5,0,0,0,244.5,21Zm0,11.327a3.711,3.711,0,1,1,3.712-3.711A3.711,3.711,0,0,1,244.5,32.327Z" transform="translate(-237 -21)"/>
</svg>
